Gov 50 Final Project
…
## Creating linear regressions that measures the correlation between being from a swing state and the agree percent of representatives, controlling for the net Trump 2016 vote margin and which Congress the data point is from. I am making two separate regressions, one for each party, as they so far appear to have different trends, so I beleiv it would be more valuable to isolate them by party in different regressions.

## subsetting

averages_dem <- averages |>
  filter(party == 'Democrat')

averages_dem

# A tibble: 1,123 × 12
   congress chamber bioguide last_name   state district party    votes
      <dbl> <chr>   <chr>    <chr>       <chr>    <dbl> <chr>    <dbl>
 1        0 house   A000148  Auchincloss MA           4 Democrat     3
 2      117 house   A000148  Auchincloss MA           4 Democrat     3
 3        0 house   A000370  Adams       NC          12 Democrat   183
 4      115 house   A000370  Adams       NC          12 Democrat    92
 5      116 house   A000370  Adams       NC          12 Democrat    88
 6      117 house   A000370  Adams       NC          12 Democrat     3
 7        0 house   A000371  Aguilar     CA          31 Democrat   184
 8      115 house   A000371  Aguilar     CA          31 Democrat    94
 9      116 house   A000371  Aguilar     CA          31 Democrat    87
10      117 house   A000371  Aguilar     CA          31 Democrat     3
# ℹ 1,113 more rows
# ℹ 4 more variables: agree_pct <dbl>, predicted_agree <dbl>,
#   net_trump_vote <dbl>, swing <chr>

averages_rep <- averages |>
  filter(party == 'Republican')

averages_rep

# A tibble: 1,208 × 12
   congress chamber bioguide last_name state district party      votes
      <dbl> <chr>   <chr>    <chr>     <chr>    <dbl> <chr>      <dbl>
 1        0 house   A000055  Aderholt  AL           4 Republican   182
 2      115 house   A000055  Aderholt  AL           4 Republican    95
 3      116 house   A000055  Aderholt  AL           4 Republican    84
 4      117 house   A000055  Aderholt  AL           4 Republican     3
 5      115 house   A000367  Amash     MI           3 Republican    96
 6      116 house   A000367  Amash     MI           3 Republican     2
 7        0 house   A000369  Amodei    NV           2 Republican   182
 8      115 house   A000369  Amodei    NV           2 Republican    94
 9      116 house   A000369  Amodei    NV           2 Republican    85
10      117 house   A000369  Amodei    NV           2 Republican     3
# ℹ 1,198 more rows
# ℹ 4 more variables: agree_pct <dbl>, predicted_agree <dbl>,
#   net_trump_vote <dbl>, swing <chr>
…
